Projects/fulladder/simulation/qsim/fulladder.msim.vcd
$comment
	File created using the following command:
		vcd file fulladder.msim.vcd -direction
$end
$date
	Mon Oct 10 22:25:02 2022
$end
$version
	ModelSim Version 10.5b
$end
$timescale
	1ps
$end

$scope module fulladder_vlg_vec_tst $end
$var reg 1 ! A $end
$var reg 1 " B $end
$var reg 1 # C $end
$var wire 1 $ Carry $end
$var wire 1 % Sum $end

$scope module i1 $end
$var wire 1 & gnd $end
$var wire 1 ' vcc $end
$var wire 1 ( unknown $end
$var tri1 1 ) devclrn $end
$var tri1 1 * devpor $end
$var tri1 1 + devoe $end
$var wire 1 , ~QUARTUS_CREATED_GND~I_combout $end
$var wire 1 - A~input_o $end
$var wire 1 . C~input_o $end
$var wire 1 / B~input_o $end
$var wire 1 0 inst1~combout $end
$var wire 1 1 inst4~combout $end
$upscope $end
$upscope $end
$enddefinitions $end
#0
$dumpvars
0!
0"
0#
0$
0%
0&
1'
x(
1)
1*
1+
0,
0-
0.
0/
00
01
$end
#1000000
1#
1.
10
1%
#2000000
1"
0#
1/
0.
#3000000
1#
1.
11
00
0%
1$
#4000000
1!
0"
0#
1-
0/
0.
01
10
1%
0$
#5000000
1#
1.
11
00
0%
1$
#6000000
1"
0#
1/
0.
#7000000
1#
1.
10
1%
